//created on: 2018-12-16
package pl.put.HowToChooseABootleOfWine

//list any import classes here.

import java.util.ArrayList;
import pl.put.HowToChooseABootleOfWine.Question;

//declare any global variables here

global pl.put.HowToChooseABootleOfWine.GUI GUI;

rule "Start"

    when
        q: Question(getQuestion().equals(""), getAnswer().equals(""))
    then
    	Question newQuestion = new Question();
        newQuestion.setQuestion("Who's drinking?");
        ArrayList<String> options = new ArrayList<>();
        options.add("Personal use");
        options.add("Someone else");
        newQuestion.setOptions(options);
		GUI.runQuestionPrompt(newQuestion);
		insert(newQuestion);
end
