//created on: 2018-12-16
package pl.put.HowToChooseABootleOfWine

//list any import classes here.

import pl.put.HowToChooseABootleOfWine.Question;

//declare any global variables here

global pl.put.HowToChooseABootleOfWine.GUI GUI;

rule "Alone_yes"
    when
        q : Question(getQuestion().equals("Alone?"), getAnswer().equals("Yes"))
    then
    	Question newQuestion = new Question();
        newQuestion.setQuestion("Recovering from work?");
        newQuestion.addYesNo();
		GUI.runQuestionPrompt(newQuestion);
		insert(newQuestion);

end

rule "Alone_no"
    when
        q : Question(getQuestion().equals("Alone?"), getAnswer().equals("No"))
    then
    	Question newQuestion = new Question();
        newQuestion.setQuestion("Dinner?");
        newQuestion.addYesNo();
        GUI.runQuestionPrompt(newQuestion);
		insert(newQuestion);

end
