//created on: 2018-12-16
package pl.put.HowToChooseABootleOfWine

//list any import classes here.

import pl.put.HowToChooseABootleOfWine.Question;

//declare any global variables here

global pl.put.HowToChooseABootleOfWine.GUI GUI;

rule "Dinner_yes"
    when
        q : Question(getQuestion().equals("Dinner?"), getAnswer().equals("Yes"))
    then
    	Question newQuestion = new Question();
        newQuestion.setQuestion("Is wine the main course?");
        newQuestion.addYesNo();
        GUI.runQuestionPrompt(newQuestion);
		insert(newQuestion);

end

rule "Dinner_no"
    when
        q : Question(getQuestion().equals("Dinner?"), getAnswer().equals("No"))
    then
    	// redirect to end answer
    	Question newQuestion = new Question();
        newQuestion.setQuestion("END_fail");
		insert(newQuestion);

end
