//created on: 2018-12-16
package pl.put.HowToChooseABootleOfWine

//list any import classes here.

import pl.put.HowToChooseABootleOfWine.Question;

//declare any global variables here

global pl.put.HowToChooseABootleOfWine.GUI GUI;

rule "FeelingFancy_oui"
    when
        q : Question(getQuestion().equals("Feeling fancy?"), getAnswer().equals("Oui"))
    then
    	// redirect to end answer
    	Question newQuestion = new Question();
        newQuestion.setQuestion("END_exotic");
		insert(newQuestion);

end

rule "FeelingFancy_no"
    when
        q : Question(getQuestion().equals("Feeling fancy?"), getAnswer().equals("No"))
    then
    	Question newQuestion = new Question();
        newQuestion.setQuestion("Daily drinking wine?");
        newQuestion.addYesNo();
        GUI.runQuestionPrompt(newQuestion);
		insert(newQuestion);

end
