//created on: 2018-12-16
package pl.put.HowToChooseABootleOfWine

//list any import classes here.

import java.util.ArrayList;
import pl.put.HowToChooseABootleOfWine.Question;

//declare any global variables here

global pl.put.HowToChooseABootleOfWine.GUI GUI;

rule "GettingDrunk_yes"
    when
        q : Question(getQuestion().equals("Getting drunk?"), getAnswer().equals("Yes"))
    then
    	// redirect to end answer
    	Question newQuestion = new Question();
        newQuestion.setQuestion("END_octane");
		insert(newQuestion);

end

rule "GettingDrunk_no"
    when
        q : Question(getQuestion().equals("Getting drunk?"), getAnswer().equals("No"))
    then
    	Question newQuestion = new Question();
        newQuestion.setQuestion("Feeling fancy?");
        ArrayList<String> options = new ArrayList<>();
        options.add("Oui");
        options.add("No");
        newQuestion.setOptions(options);
        GUI.runQuestionPrompt(newQuestion);
		insert(newQuestion);

end
