//created on: 2018-12-16
package pl.put.HowToChooseABootleOfWine

//list any import classes here.

import java.util.ArrayList;
import pl.put.HowToChooseABootleOfWine.Question;

//declare any global variables here

global pl.put.HowToChooseABootleOfWine.GUI GUI;

rule "NewVSOldWorld_new"
    when
        q : Question(getQuestion().equals("New VS Old World?"), getAnswer().equals("New"))
    then
    	Question newQuestion = new Question();
        newQuestion.setQuestion("Are you into cults?");
        newQuestion.addYesNo();
        GUI.runQuestionPrompt(newQuestion);
		insert(newQuestion);

end

rule "NewVSOldWorld_old"
    when
        q : Question(getQuestion().equals("New VS Old World?"), getAnswer().equals("Old!"))
    then
    	Question newQuestion = new Question();
        newQuestion.setQuestion("END_old");
		insert(newQuestion);

end

rule "NewVSOldWorld_what"
    when
        q : Question(getQuestion().equals("New VS Old World?"), getAnswer().equals("What?"))
    then
    	Question newQuestion = new Question();
        newQuestion.setQuestion("END_fail");
		insert(newQuestion);

end
