//created on: 2018-12-16
package pl.put.HowToChooseABootleOfWine

//list any import classes here.

import java.util.ArrayList;
import pl.put.HowToChooseABootleOfWine.Question;

//declare any global variables here

global pl.put.HowToChooseABootleOfWine.GUI GUI;

rule "OnTheGo_dinner"

    when
        q : Question(getQuestion().equals("On the go?"), getAnswer().equals("Dinner"))
    then
    	Question newQuestion = new Question();
        newQuestion.setQuestion("Dinner?");
        newQuestion.addYesNo();
        GUI.runQuestionPrompt(newQuestion);
		insert(newQuestion);

end

rule "OnTheGo_restaurant"
    when
        q : Question(getQuestion().equals("On the go?"), getAnswer().equals("Restaurant"))
    then
    	Question newQuestion = new Question();
        newQuestion.setQuestion("Fancy?");
        newQuestion.addYesNo();
        GUI.runQuestionPrompt(newQuestion);
		insert(newQuestion);

end

rule "OnTheGo_camping"
    when
        q : Question(getQuestion().equals("On the go?"), getAnswer().equals("Camping"))
    then
    	// redirect to end answer
    	Question newQuestion = new Question();
        newQuestion.setQuestion("END_no_cork");
		insert(newQuestion);

end

rule "OnTheGo_Drinking_in_public"
    when
        q : Question(getQuestion().equals("On the go?"), getAnswer().equals("Drinking in the public"))
    then
    	// redirect to end answer
        Question newQuestion = new Question();
        newQuestion.setQuestion("END_no_cork");
		insert(newQuestion);

end

rule "OnTheGo_special_occasion"
    when
        q : Question(getQuestion().equals("On the go?"), getAnswer().equals("Special occasions"))
    then
        Question newQuestion = new Question();
        newQuestion.setQuestion("Special occasions");
        ArrayList<String> options = new ArrayList<>();
        options.add("New years");
        options.add("Blind date");
        options.add("Birthday");
        options.add("Eloping");
        options.add("Anniversary");
        newQuestion.setOptions(options);
        GUI.runQuestionPrompt(newQuestion);
		insert(newQuestion);

end
