//created on: 2018-12-16
package pl.put.HowToChooseABootleOfWine

//list any import classes here.

import pl.put.HowToChooseABootleOfWine.Question;

//declare any global variables here

global pl.put.HowToChooseABootleOfWine.GUI GUI;

rule "OrderFromAWindow_yes"
    when
        q : Question(getQuestion().equals("Order from a window?"), getAnswer().equals("Yes"))
    then
        Question newQuestion = new Question();
        newQuestion.setQuestion("END_budget");
		insert(newQuestion);

end

rule "OrderFromAWindow_no"
    when
        q : Question(getQuestion().equals("Order from a window?"), getAnswer().equals("No"))
    then
        Question newQuestion = new Question();
        newQuestion.setQuestion("END_sun");
		insert(newQuestion);

end
