//created on: 2018-12-16
package pl.put.HowToChooseABootleOfWine

//list any import classes here.

import pl.put.HowToChooseABootleOfWine.Question;

//declare any global variables here

global pl.put.HowToChooseABootleOfWine.GUI GUI;

rule "RecoveringFromWork_yes"
    when
        q : Question(getQuestion().equals("Recovering from work?"), getAnswer().equals("Yes"))
    then
    	// redirect to end answer
        Question newQuestion = new Question();
        newQuestion.setQuestion("END_sniff");
		insert(newQuestion);

end

rule "RecoveringFromWork_no"
    when
        q : Question(getQuestion().equals("Recovering from work?"), getAnswer().equals("No"))
    then
        Question newQuestion = new Question();
        newQuestion.setQuestion("Getting drunk?");
        newQuestion.addYesNo();
        GUI.runQuestionPrompt(newQuestion);
		insert(newQuestion);

end
