//created on: 2018-12-16
package pl.put.HowToChooseABootleOfWine

//list any import classes here.

import java.util.ArrayList;
import pl.put.HowToChooseABootleOfWine.Question;

//declare any global variables here

global pl.put.HowToChooseABootleOfWine.GUI GUI;

rule "SprayButterInYourMouth_yep"
    when
        q : Question(getQuestion().equals("Spray butter in your mouth?"), getAnswer().equals("Yep"))
    then
    	// redirect to end answer
    	Question newQuestion = new Question();
        newQuestion.setQuestion("END_buttery");
		insert(newQuestion);

end

rule "SprayButterInYourMouth_no"
    when
        q : Question(getQuestion().equals("Spray butter in your mouth?"), getAnswer().equals("No!"))
    then
    	Question newQuestion = new Question();
        newQuestion.setQuestion("END_fail");
		insert(newQuestion);

end
