//created on: 2018-12-16
package pl.put.HowToChooseABootleOfWine

//list any import classes here.

import pl.put.HowToChooseABootleOfWine.Question;

//declare any global variables here

global pl.put.HowToChooseABootleOfWine.GUI GUI;

rule "WhosDrinking_someone"

    when
        q : Question(getQuestion().equals("Who's drinking?"), getAnswer().equals("Someone else"))
    then
        Question newQuestion = new Question();
        newQuestion.setQuestion("Are you at a social gathering?");
        newQuestion.addYesNo();
        GUI.runQuestionPrompt(newQuestion);
		insert(newQuestion);

end

rule "WhosDrinking_personal"
    when
        q : Question(getQuestion().equals("Who's drinking?"), getAnswer().equals("Personal use"))
    then
        Question newQuestion = new Question();
        newQuestion.setQuestion("Are you at home?");
        newQuestion.addYesNo();
        GUI.runQuestionPrompt(newQuestion);
		insert(newQuestion);

end
